…
From this, we learned that the most common trees in Vancouver were
Kwanzan Flowering Cherry, Pissard Plum, and Norway Maple. We also
learned that there are several species of trees in Vancouver that have
only one recorded plant, which would make it harder to pinpoint
rarities. In future analysis, I would want to dive deeper into
neighborhood variations.

``` r
#Goal 1: Create a table of number of each species in metro Vancouver.
van_tree_species <- vantrees_age_group %>%
                        count(common_name)
van_tree_species
```

    ## # A tibble: 634 × 2
    ##    common_name                   n
    ##    <chr>                     <int>
    ##  1 ACCOLADE CHERRY              60
    ##  2 AKEBONO FLOWERING CHERRY   2384
    ##  3 ALDER SPECIES                16
    ##  4 ALDERLEAFED MOUNTAIN ASH    172
    ##  5 ALIA'S MAGNOLIA               3
    ##  6 ALLEGHENY SERVICEBERRY        6
    ##  7 ALLGOLD EUROPEAN ASH         78
    ##  8 ALMIRA NORWAY MAPLE           9
    ##  9 ALPINE FIR                    1
    ## 10 AMANOGAWA JAPANESE CHERRY    68
    ## # ℹ 624 more rows
…
age_summary
```

    ## # A tibble: 22 × 6
    ##    neighbourhood_name min_age max_age mean_age median_age     n
    ##    <fct>                <dbl>   <dbl>    <dbl>      <dbl> <int>
    ##  1 ARBUTUS-RIDGE            6      35     21.1         22  5169
    ##  2 DOWNTOWN                 6      35     19.7         19  5159
    ##  3 DUNBAR-STHLANDS          6      35     20.2         21  9415
    ##  4 FAIRVIEW                 6      35     20.9         21  4002
    ##  5 GRANDVW-WDLAND           6      35     20.6         21  6703
    ##  6 HASTINGS-SUNRISE         6      35     22.4         22 10547
    ##  7 KENSINGTON-CC            6      35     21.8         23 11042
    ##  8 KERRISDALE               6      35     20.0         20  6936
    ##  9 KILLARNEY                6      35     21.0         22  6148
    ## 10 KITSILANO                6      35     19.9         19  8115
    ## # ℹ 12 more rows
…
age_height_summary
```

    ## # A tibble: 39 × 4
    ## # Groups:   height_range_id [11]
    ##    height_range_id age_group count proportion
    ##              <dbl> <ord>     <int>      <dbl>
    ##  1               0 young         4    0.0187 
    ##  2               0 teen         50    0.234  
    ##  3               0 adult         9    0.0421 
    ##  4               0 old         151    0.706  
    ##  5               1 young      4489    0.112  
    ##  6               1 teen      22740    0.569  
    ##  7               1 adult      6827    0.171  
    ##  8               1 old        5903    0.148  
    ##  9               2 young        91    0.00216
    ## 10               2 teen       2346    0.0556 
    ## # ℹ 29 more rows
…
<!--------------------------- Start your work below --------------------------->

Based on the definition above, my chosen data set is tidy! Each row
represents a single observation, each column represents a variable, and
each cell has a value, even if it is NA.

``` r
#Goal 1: Choose a working data set
vantrees_age_group
```

    ## # A tibble: 146,611 × 22
    ##    tree_id civic_number std_street    genus_name species_name cultivar_name  
    ##      <dbl>        <dbl> <chr>         <chr>      <chr>        <chr>          
    ##  1  149556          494 W 58TH AV     ULMUS      AMERICANA    BRANDON        
    ##  2  149563          450 W 58TH AV     ZELKOVA    SERRATA      <NA>           
    ##  3  149579         4994 WINDSOR ST    STYRAX     JAPONICA     <NA>           
    ##  4  149590          858 E 39TH AV     FRAXINUS   AMERICANA    AUTUMN APPLAUSE
    ##  5  149604         5032 WINDSOR ST    ACER       CAMPESTRE    <NA>           
    ##  6  149616          585 W 61ST AV     PYRUS      CALLERYANA   CHANTICLEER    
    ##  7  149617         4909 SHERBROOKE ST ACER       PLATANOIDES  COLUMNARE      
    ##  8  149618         4925 SHERBROOKE ST ACER       PLATANOIDES  COLUMNARE      
    ##  9  149619         4969 SHERBROOKE ST ACER       PLATANOIDES  COLUMNARE      
    ## 10  149625          720 E 39TH AV     FRAXINUS   AMERICANA    AUTUMN APPLAUSE
    ## # ℹ 146,601 more rows
    ## # ℹ 16 more variables: common_name <chr>, assigned <chr>, root_barrier <chr>,
    ## #   plant_area <chr>, on_street_block <dbl>, on_street <chr>,
    ## #   neighbourhood_name <fct>, street_side_name <chr>, height_range_id <dbl>,
    ## #   diameter <dbl>, curb <chr>, date_planted <date>, longitude <dbl>,
    ## #   latitude <dbl>, age <dbl>, age_group <ord>
…
